info face="Engravers' Gothic BT" size=26 bold=0 italic=0 charset="" unicode=0 stretchH=100 smooth=1 aa=1 padding=1,1,1,1 spacing=-2,-2
common lineHeight=29 base=22 scaleW=512 scaleH=512 pages=1 packed=0
page id=0 file="EngraversGothicBT_26.png"
chars count=192
char id=0       x=4    y=0    width=16   height=26   xoffset=0    yoffset=2    xadvance=16   page=0    chnl=0 
char id=10      x=4    y=0    width=16   height=26   xoffset=0    yoffset=2    xadvance=16   page=0    chnl=0 
char id=32      x=0    y=0    width=0    height=0    xoffset=-1   yoffset=21   xadvance=9    page=0    chnl=0 
char id=33      x=506  y=49   width=4    height=16   xoffset=2    yoffset=7    xadvance=8    page=0    chnl=0 
char id=34      x=405  y=82   width=7    height=9    xoffset=0    yoffset=3    xadvance=7    page=0    chnl=0 
char id=35      x=77   y=28   width=20   height=20   xoffset=0    yoffset=3    xadvance=20   page=0    chnl=0 
char id=36      x=339  y=0    width=15   height=21   xoffset=1    yoffset=5    xadvance=17   page=0    chnl=0 
char id=37      x=159  y=66   width=23   height=16   xoffset=0    yoffset=7    xadvance=22   page=0    chnl=0 
char id=38      x=182  y=66   width=17   height=16   xoffset=1    yoffset=7    xadvance=16   page=0    chnl=0 
char id=39      x=412  y=82   width=4    height=9    xoffset=0    yoffset=3    xadvance=4    page=0    chnl=0 
char id=40      x=358  y=28   width=7    height=18   xoffset=0    yoffset=6    xadvance=7    page=0    chnl=0 
char id=41      x=365  y=28   width=7    height=18   xoffset=0    yoffset=6    xadvance=7    page=0    chnl=0 
char id=42      x=385  y=82   width=11   height=10   xoffset=1    yoffset=7    xadvance=14   page=0    chnl=0 
char id=43      x=0    y=49   width=17   height=17   xoffset=2    yoffset=6    xadvance=21   page=0    chnl=0 
char id=44      x=491  y=82   width=5    height=8    xoffset=1    yoffset=18   xadvance=8    page=0    chnl=0 
char id=45      x=43   y=95   width=7    height=4    xoffset=0    yoffset=13   xadvance=7    page=0    chnl=0 
char id=46      x=505  y=82   width=4    height=5    xoffset=2    yoffset=18   xadvance=8    page=0    chnl=0 
char id=47      x=499  y=0    width=11   height=19   xoffset=-2   yoffset=7    xadvance=7    page=0    chnl=0 
char id=48      x=82   y=66   width=18   height=16   xoffset=0    yoffset=7    xadvance=18   page=0    chnl=0 
char id=49      x=338  y=66   width=4    height=15   xoffset=7    yoffset=8    xadvance=18   page=0    chnl=0 
char id=50      x=492  y=49   width=14   height=16   xoffset=2    yoffset=7    xadvance=17   page=0    chnl=0 
char id=51      x=0    y=66   width=17   height=16   xoffset=0    yoffset=7    xadvance=17   page=0    chnl=0 
char id=52      x=342  y=66   width=17   height=15   xoffset=0    yoffset=8    xadvance=17   page=0    chnl=0 
char id=53      x=17   y=66   width=16   height=16   xoffset=0    yoffset=7    xadvance=17   page=0    chnl=0 
char id=54      x=33   y=66   width=17   height=16   xoffset=1    yoffset=7    xadvance=18   page=0    chnl=0 
char id=55      x=359  y=66   width=16   height=15   xoffset=2    yoffset=8    xadvance=17   page=0    chnl=0 
char id=56      x=50   y=66   width=15   height=16   xoffset=1    yoffset=7    xadvance=17   page=0    chnl=0 
char id=57      x=65   y=66   width=17   height=16   xoffset=0    yoffset=7    xadvance=17   page=0    chnl=0 
char id=58      x=330  y=82   width=4    height=12   xoffset=2    yoffset=11   xadvance=8    page=0    chnl=0 
char id=59      x=390  y=66   width=5    height=14   xoffset=1    yoffset=12   xadvance=8    page=0    chnl=0 
char id=60      x=125  y=66   width=17   height=16   xoffset=2    yoffset=6    xadvance=21   page=0    chnl=0 
char id=61      x=434  y=82   width=17   height=9    xoffset=2    yoffset=10   xadvance=21   page=0    chnl=0 
char id=62      x=142  y=66   width=17   height=16   xoffset=2    yoffset=6    xadvance=21   page=0    chnl=0 
char id=63      x=100  y=66   width=11   height=16   xoffset=-1   yoffset=7    xadvance=9    page=0    chnl=0 
char id=64      x=47   y=0    width=25   height=24   xoffset=0    yoffset=3    xadvance=25   page=0    chnl=0 
char id=65      x=109  y=49   width=18   height=16   xoffset=-1   yoffset=7    xadvance=15   page=0    chnl=0 
char id=66      x=127  y=49   width=16   height=16   xoffset=1    yoffset=7    xadvance=17   page=0    chnl=0 
char id=67      x=143  y=49   width=16   height=16   xoffset=0    yoffset=7    xadvance=16   page=0    chnl=0 
char id=68      x=159  y=49   width=15   height=16   xoffset=1    yoffset=7    xadvance=16   page=0    chnl=0 
char id=69      x=174  y=49   width=14   height=16   xoffset=1    yoffset=7    xadvance=14   page=0    chnl=0 
char id=70      x=188  y=49   width=13   height=16   xoffset=1    yoffset=7    xadvance=13   page=0    chnl=0 
char id=71      x=201  y=49   width=16   height=16   xoffset=0    yoffset=7    xadvance=16   page=0    chnl=0 
char id=72      x=217  y=49   width=14   height=16   xoffset=1    yoffset=7    xadvance=16   page=0    chnl=0 
char id=73      x=231  y=49   width=4    height=16   xoffset=1    yoffset=7    xadvance=6    page=0    chnl=0 
char id=74      x=235  y=49   width=14   height=16   xoffset=0    yoffset=7    xadvance=15   page=0    chnl=0 
char id=75      x=249  y=49   width=15   height=16   xoffset=1    yoffset=7    xadvance=15   page=0    chnl=0 
char id=76      x=264  y=49   width=13   height=16   xoffset=1    yoffset=7    xadvance=13   page=0    chnl=0 
char id=77      x=277  y=49   width=17   height=16   xoffset=1    yoffset=7    xadvance=19   page=0    chnl=0 
char id=78      x=294  y=49   width=14   height=16   xoffset=1    yoffset=7    xadvance=16   page=0    chnl=0 
char id=79      x=308  y=49   width=17   height=16   xoffset=0    yoffset=7    xadvance=17   page=0    chnl=0 
char id=80      x=325  y=49   width=15   height=16   xoffset=1    yoffset=7    xadvance=16   page=0    chnl=0 
char id=81      x=341  y=28   width=17   height=18   xoffset=0    yoffset=7    xadvance=17   page=0    chnl=0 
char id=82      x=340  y=49   width=15   height=16   xoffset=1    yoffset=7    xadvance=16   page=0    chnl=0 
char id=83      x=355  y=49   width=16   height=16   xoffset=-1   yoffset=7    xadvance=15   page=0    chnl=0 
char id=84      x=371  y=49   width=16   height=16   xoffset=-2   yoffset=7    xadvance=12   page=0    chnl=0 
char id=85      x=387  y=49   width=14   height=16   xoffset=1    yoffset=7    xadvance=16   page=0    chnl=0 
char id=86      x=401  y=49   width=18   height=16   xoffset=-2   yoffset=7    xadvance=14   page=0    chnl=0 
char id=87      x=419  y=49   width=22   height=16   xoffset=-2   yoffset=7    xadvance=19   page=0    chnl=0 
char id=88      x=441  y=49   width=17   height=16   xoffset=-1   yoffset=7    xadvance=14   page=0    chnl=0 
char id=89      x=458  y=49   width=18   height=16   xoffset=-3   yoffset=7    xadvance=12   page=0    chnl=0 
char id=90      x=476  y=49   width=16   height=16   xoffset=-1   yoffset=7    xadvance=14   page=0    chnl=0 
char id=91      x=111  y=66   width=7    height=16   xoffset=0    yoffset=7    xadvance=7    page=0    chnl=0 
char id=92      x=97   y=28   width=11   height=19   xoffset=-2   yoffset=7    xadvance=7    page=0    chnl=0 
char id=93      x=118  y=66   width=7    height=16   xoffset=0    yoffset=7    xadvance=7    page=0    chnl=0 
char id=94      x=416  y=82   width=18   height=9    xoffset=4    yoffset=3    xadvance=26   page=0    chnl=0 
char id=95      x=50   y=95   width=15   height=4    xoffset=-1   yoffset=25   xadvance=13   page=0    chnl=0 
char id=96      x=0    y=95   width=8    height=7    xoffset=2    yoffset=4    xadvance=13   page=0    chnl=0 
char id=97      x=412  y=66   width=15   height=13   xoffset=-2   yoffset=10   xadvance=12   page=0    chnl=0 
char id=98      x=427  y=66   width=13   height=13   xoffset=1    yoffset=10   xadvance=14   page=0    chnl=0 
char id=99      x=440  y=66   width=15   height=13   xoffset=0    yoffset=10   xadvance=14   page=0    chnl=0 
char id=100     x=455  y=66   width=13   height=13   xoffset=1    yoffset=10   xadvance=14   page=0    chnl=0 
char id=101     x=468  y=66   width=13   height=13   xoffset=1    yoffset=10   xadvance=13   page=0    chnl=0 
char id=102     x=481  y=66   width=12   height=13   xoffset=1    yoffset=10   xadvance=13   page=0    chnl=0 
char id=103     x=493  y=66   width=15   height=13   xoffset=0    yoffset=10   xadvance=15   page=0    chnl=0 
char id=104     x=0    y=82   width=13   height=13   xoffset=1    yoffset=10   xadvance=15   page=0    chnl=0 
char id=105     x=13   y=82   width=4    height=13   xoffset=1    yoffset=10   xadvance=6    page=0    chnl=0 
char id=106     x=17   y=82   width=11   height=13   xoffset=0    yoffset=10   xadvance=12   page=0    chnl=0 
char id=107     x=28   y=82   width=13   height=13   xoffset=1    yoffset=10   xadvance=13   page=0    chnl=0 
char id=108     x=41   y=82   width=12   height=13   xoffset=1    yoffset=10   xadvance=13   page=0    chnl=0 
char id=109     x=53   y=82   width=14   height=13   xoffset=1    yoffset=10   xadvance=16   page=0    chnl=0 
char id=110     x=67   y=82   width=12   height=13   xoffset=1    yoffset=10   xadvance=14   page=0    chnl=0 
char id=111     x=79   y=82   width=15   height=13   xoffset=0    yoffset=10   xadvance=15   page=0    chnl=0 
char id=112     x=94   y=82   width=14   height=13   xoffset=1    yoffset=10   xadvance=14   page=0    chnl=0 
char id=113     x=375  y=66   width=15   height=14   xoffset=0    yoffset=10   xadvance=15   page=0    chnl=0 
char id=114     x=108  y=82   width=14   height=13   xoffset=1    yoffset=10   xadvance=14   page=0    chnl=0 
char id=115     x=122  y=82   width=13   height=13   xoffset=-1   yoffset=10   xadvance=12   page=0    chnl=0 
char id=116     x=135  y=82   width=13   height=13   xoffset=-1   yoffset=10   xadvance=11   page=0    chnl=0 
char id=117     x=148  y=82   width=13   height=13   xoffset=1    yoffset=10   xadvance=15   page=0    chnl=0 
char id=118     x=161  y=82   width=15   height=13   xoffset=-1   yoffset=10   xadvance=12   page=0    chnl=0 
char id=119     x=176  y=82   width=18   height=13   xoffset=-1   yoffset=10   xadvance=16   page=0    chnl=0 
char id=120     x=194  y=82   width=14   height=13   xoffset=-1   yoffset=10   xadvance=12   page=0    chnl=0 
char id=121     x=208  y=82   width=14   height=13   xoffset=-1   yoffset=10   xadvance=12   page=0    chnl=0 
char id=122     x=222  y=82   width=13   height=13   xoffset=-1   yoffset=10   xadvance=11   page=0    chnl=0 
char id=123     x=20   y=0    width=11   height=26   xoffset=1    yoffset=2    xadvance=13   page=0    chnl=0 
char id=124     x=0    y=0    width=4    height=28   xoffset=5    yoffset=1    xadvance=14   page=0    chnl=0 
char id=125     x=31   y=0    width=12   height=26   xoffset=1    yoffset=2    xadvance=14   page=0    chnl=0 
char id=126     x=8    y=95   width=19   height=7    xoffset=1    yoffset=11   xadvance=21   page=0    chnl=0 
char id=160     x=0    y=0    width=0    height=0    xoffset=-1   yoffset=21   xadvance=17   page=0    chnl=0 
char id=161     x=199  y=66   width=4    height=16   xoffset=2    yoffset=7    xadvance=8    page=0    chnl=0 
char id=162     x=354  y=0    width=14   height=21   xoffset=2    yoffset=5    xadvance=17   page=0    chnl=0 
char id=163     x=203  y=66   width=15   height=16   xoffset=1    yoffset=7    xadvance=17   page=0    chnl=0 
char id=164     x=218  y=66   width=16   height=16   xoffset=0    yoffset=3    xadvance=16   page=0    chnl=0 
char id=165     x=234  y=66   width=17   height=16   xoffset=-1   yoffset=7    xadvance=15   page=0    chnl=0 
char id=166     x=43   y=0    width=4    height=25   xoffset=5    yoffset=2    xadvance=14   page=0    chnl=0 
char id=167     x=108  y=28   width=11   height=19   xoffset=1    yoffset=7    xadvance=13   page=0    chnl=0 
char id=168     x=35   y=95   width=8    height=5    xoffset=2    yoffset=5    xadvance=12   page=0    chnl=0 
char id=169     x=368  y=0    width=21   height=21   xoffset=1    yoffset=2    xadvance=23   page=0    chnl=0 
char id=170     x=451  y=82   width=11   height=9    xoffset=-2   yoffset=9    xadvance=8    page=0    chnl=0 
char id=171     x=334  y=82   width=12   height=11   xoffset=0    yoffset=11   xadvance=11   page=0    chnl=0 
char id=172     x=462  y=82   width=18   height=9    xoffset=2    yoffset=10   xadvance=22   page=0    chnl=0 
char id=174     x=389  y=0    width=21   height=21   xoffset=1    yoffset=2    xadvance=23   page=0    chnl=0 
char id=175     x=65   y=95   width=9    height=4    xoffset=2    yoffset=5    xadvance=13   page=0    chnl=0 
char id=176     x=396  y=82   width=9    height=10   xoffset=0    yoffset=2    xadvance=9    page=0    chnl=0 
char id=177     x=251  y=66   width=17   height=16   xoffset=2    yoffset=6    xadvance=21   page=0    chnl=0 
char id=178     x=346  y=82   width=11   height=11   xoffset=1    yoffset=7    xadvance=12   page=0    chnl=0 
char id=179     x=357  y=82   width=12   height=11   xoffset=0    yoffset=7    xadvance=12   page=0    chnl=0 
char id=180     x=27   y=95   width=8    height=7    xoffset=3    yoffset=4    xadvance=13   page=0    chnl=0 
char id=181     x=410  y=0    width=17   height=21   xoffset=-2   yoffset=7    xadvance=14   page=0    chnl=0 
char id=182     x=427  y=0    width=14   height=21   xoffset=-1   yoffset=2    xadvance=13   page=0    chnl=0 
char id=183     x=74   y=95   width=4    height=4    xoffset=2    yoffset=13   xadvance=8    page=0    chnl=0 
char id=184     x=496  y=82   width=9    height=8    xoffset=2    yoffset=21   xadvance=13   page=0    chnl=0 
char id=185     x=369  y=82   width=4    height=11   xoffset=3    yoffset=7    xadvance=11   page=0    chnl=0 
char id=186     x=480  y=82   width=11   height=9    xoffset=0    yoffset=9    xadvance=11   page=0    chnl=0 
char id=187     x=373  y=82   width=12   height=11   xoffset=0    yoffset=11   xadvance=11   page=0    chnl=0 
char id=188     x=17   y=49   width=24   height=17   xoffset=3    yoffset=7    xadvance=26   page=0    chnl=0 
char id=189     x=41   y=49   width=23   height=17   xoffset=3    yoffset=7    xadvance=26   page=0    chnl=0 
char id=190     x=64   y=49   width=28   height=17   xoffset=-1   yoffset=7    xadvance=26   page=0    chnl=0 
char id=191     x=268  y=66   width=11   height=16   xoffset=0    yoffset=7    xadvance=10   page=0    chnl=0 
char id=192     x=183  y=0    width=18   height=22   xoffset=-1   yoffset=1    xadvance=15   page=0    chnl=0 
char id=193     x=201  y=0    width=18   height=22   xoffset=-1   yoffset=1    xadvance=15   page=0    chnl=0 
char id=194     x=219  y=0    width=18   height=22   xoffset=-1   yoffset=1    xadvance=15   page=0    chnl=0 
char id=195     x=441  y=0    width=18   height=21   xoffset=-1   yoffset=2    xadvance=15   page=0    chnl=0 
char id=196     x=459  y=0    width=18   height=21   xoffset=-2   yoffset=2    xadvance=14   page=0    chnl=0 
char id=197     x=72   y=0    width=18   height=24   xoffset=-1   yoffset=-1   xadvance=16   page=0    chnl=0 
char id=198     x=279  y=66   width=26   height=16   xoffset=-2   yoffset=7    xadvance=23   page=0    chnl=0 
char id=199     x=237  y=0    width=17   height=22   xoffset=0    yoffset=7    xadvance=16   page=0    chnl=0 
char id=200     x=254  y=0    width=14   height=22   xoffset=1    yoffset=1    xadvance=14   page=0    chnl=0 
char id=201     x=268  y=0    width=14   height=22   xoffset=1    yoffset=1    xadvance=14   page=0    chnl=0 
char id=202     x=282  y=0    width=14   height=22   xoffset=1    yoffset=1    xadvance=14   page=0    chnl=0 
char id=203     x=477  y=0    width=14   height=21   xoffset=1    yoffset=2    xadvance=14   page=0    chnl=0 
char id=204     x=296  y=0    width=8    height=22   xoffset=-2   yoffset=1    xadvance=6    page=0    chnl=0 
char id=205     x=304  y=0    width=7    height=22   xoffset=0    yoffset=1    xadvance=6    page=0    chnl=0 
char id=206     x=311  y=0    width=10   height=22   xoffset=-2   yoffset=1    xadvance=6    page=0    chnl=0 
char id=207     x=491  y=0    width=8    height=21   xoffset=-1   yoffset=2    xadvance=6    page=0    chnl=0 
char id=208     x=305  y=66   width=18   height=16   xoffset=0    yoffset=7    xadvance=18   page=0    chnl=0 
char id=209     x=0    y=28   width=14   height=21   xoffset=1    yoffset=2    xadvance=16   page=0    chnl=0 
char id=210     x=90   y=0    width=17   height=23   xoffset=0    yoffset=0    xadvance=17   page=0    chnl=0 
char id=211     x=107  y=0    width=17   height=23   xoffset=0    yoffset=0    xadvance=17   page=0    chnl=0 
char id=212     x=124  y=0    width=17   height=23   xoffset=0    yoffset=0    xadvance=17   page=0    chnl=0 
char id=213     x=14   y=28   width=17   height=21   xoffset=0    yoffset=2    xadvance=17   page=0    chnl=0 
char id=214     x=31   y=28   width=17   height=21   xoffset=0    yoffset=2    xadvance=17   page=0    chnl=0 
char id=215     x=92   y=49   width=17   height=17   xoffset=2    yoffset=6    xadvance=22   page=0    chnl=0 
char id=216     x=372  y=28   width=17   height=18   xoffset=0    yoffset=6    xadvance=17   page=0    chnl=0 
char id=217     x=141  y=0    width=14   height=23   xoffset=1    yoffset=0    xadvance=16   page=0    chnl=0 
char id=218     x=155  y=0    width=14   height=23   xoffset=1    yoffset=0    xadvance=16   page=0    chnl=0 
char id=219     x=169  y=0    width=14   height=23   xoffset=1    yoffset=0    xadvance=16   page=0    chnl=0 
char id=220     x=48   y=28   width=14   height=21   xoffset=1    yoffset=2    xadvance=16   page=0    chnl=0 
char id=221     x=321  y=0    width=18   height=22   xoffset=-3   yoffset=1    xadvance=12   page=0    chnl=0 
char id=222     x=323  y=66   width=15   height=16   xoffset=1    yoffset=7    xadvance=16   page=0    chnl=0 
char id=223     x=235  y=82   width=26   height=13   xoffset=-1   yoffset=10   xadvance=25   page=0    chnl=0 
char id=224     x=119  y=28   width=15   height=19   xoffset=-2   yoffset=4    xadvance=12   page=0    chnl=0 
char id=225     x=134  y=28   width=15   height=19   xoffset=-2   yoffset=4    xadvance=12   page=0    chnl=0 
char id=226     x=149  y=28   width=15   height=19   xoffset=-2   yoffset=4    xadvance=12   page=0    chnl=0 
char id=227     x=389  y=28   width=15   height=18   xoffset=-2   yoffset=5    xadvance=12   page=0    chnl=0 
char id=228     x=404  y=28   width=14   height=18   xoffset=-1   yoffset=5    xadvance=12   page=0    chnl=0 
char id=229     x=62   y=28   width=15   height=21   xoffset=-2   yoffset=2    xadvance=12   page=0    chnl=0 
char id=230     x=261  y=82   width=24   height=13   xoffset=-2   yoffset=10   xadvance=21   page=0    chnl=0 
char id=231     x=164  y=28   width=15   height=19   xoffset=0    yoffset=10   xadvance=15   page=0    chnl=0 
char id=232     x=179  y=28   width=13   height=19   xoffset=1    yoffset=4    xadvance=13   page=0    chnl=0 
char id=233     x=192  y=28   width=13   height=19   xoffset=1    yoffset=4    xadvance=13   page=0    chnl=0 
char id=234     x=205  y=28   width=13   height=19   xoffset=1    yoffset=4    xadvance=13   page=0    chnl=0 
char id=235     x=418  y=28   width=13   height=18   xoffset=1    yoffset=5    xadvance=13   page=0    chnl=0 
char id=236     x=218  y=28   width=8    height=19   xoffset=-2   yoffset=4    xadvance=6    page=0    chnl=0 
char id=237     x=226  y=28   width=7    height=19   xoffset=0    yoffset=4    xadvance=6    page=0    chnl=0 
char id=238     x=233  y=28   width=10   height=19   xoffset=-2   yoffset=4    xadvance=6    page=0    chnl=0 
char id=239     x=431  y=28   width=8    height=18   xoffset=-1   yoffset=5    xadvance=6    page=0    chnl=0 
char id=240     x=285  y=82   width=15   height=13   xoffset=-1   yoffset=10   xadvance=14   page=0    chnl=0 
char id=241     x=439  y=28   width=12   height=18   xoffset=1    yoffset=5    xadvance=14   page=0    chnl=0 
char id=242     x=243  y=28   width=15   height=19   xoffset=0    yoffset=4    xadvance=15   page=0    chnl=0 
char id=243     x=258  y=28   width=15   height=19   xoffset=0    yoffset=4    xadvance=15   page=0    chnl=0 
char id=244     x=273  y=28   width=15   height=19   xoffset=0    yoffset=4    xadvance=15   page=0    chnl=0 
char id=245     x=451  y=28   width=15   height=18   xoffset=0    yoffset=5    xadvance=15   page=0    chnl=0 
char id=246     x=466  y=28   width=15   height=18   xoffset=0    yoffset=5    xadvance=15   page=0    chnl=0 
char id=247     x=395  y=66   width=17   height=14   xoffset=2    yoffset=7    xadvance=21   page=0    chnl=0 
char id=248     x=300  y=82   width=16   height=13   xoffset=-1   yoffset=10   xadvance=14   page=0    chnl=0 
char id=249     x=288  y=28   width=13   height=19   xoffset=1    yoffset=4    xadvance=15   page=0    chnl=0 
char id=250     x=301  y=28   width=13   height=19   xoffset=1    yoffset=4    xadvance=15   page=0    chnl=0 
char id=251     x=314  y=28   width=13   height=19   xoffset=1    yoffset=4    xadvance=15   page=0    chnl=0 
char id=252     x=481  y=28   width=13   height=18   xoffset=1    yoffset=5    xadvance=15   page=0    chnl=0 
char id=253     x=327  y=28   width=14   height=19   xoffset=-1   yoffset=4    xadvance=12   page=0    chnl=0 
char id=254     x=316  y=82   width=14   height=13   xoffset=1    yoffset=10   xadvance=14   page=0    chnl=0 
char id=255     x=494  y=28   width=14   height=18   xoffset=-1   yoffset=5    xadvance=12   page=0    chnl=0 
kernings count=187
kerning first=70 second=46 amount=-4
kerning first=121 second=99 amount=-1
kerning first=84 second=121 amount=-2
kerning first=86 second=58 amount=-2
kerning first=70 second=114 amount=-2
kerning first=87 second=171 amount=-1
kerning first=89 second=101 amount=-1
kerning first=70 second=59 amount=-4
kerning first=89 second=46 amount=-3
kerning first=65 second=58 amount=-1
kerning first=84 second=45 amount=-1
kerning first=103 second=121 amount=-1
kerning first=75 second=197 amount=-1
kerning first=187 second=86 amount=-1
kerning first=197 second=84 amount=-1
kerning first=89 second=59 amount=-2
kerning first=86 second=105 amount=-1
kerning first=84 second=58 amount=-2
kerning first=87 second=101 amount=-1
kerning first=197 second=118 amount=-1
kerning first=87 second=46 amount=-3
kerning first=112 second=119 amount=1
kerning first=97 second=116 amount=-1
kerning first=65 second=84 amount=-1
kerning first=87 second=114 amount=-1
kerning first=87 second=59 amount=-2
kerning first=65 second=118 amount=-1
kerning first=75 second=65 amount=-1
kerning first=84 second=105 amount=-2
kerning first=86 second=97 amount=-2
kerning first=116 second=116 amount=-1
kerning first=197 second=187 amount=1
kerning first=171 second=116 amount=1
kerning first=99 second=121 amount=-1
kerning first=230 second=187 amount=1
kerning first=197 second=89 amount=-1
kerning first=240 second=121 amount=-1
kerning first=86 second=187 amount=-1
kerning first=70 second=111 amount=-2
kerning first=80 second=58 amount=-1
kerning first=84 second=97 amount=-2
kerning first=171 second=74 amount=1
kerning first=65 second=187 amount=1
kerning first=108 second=119 amount=-1
kerning first=97 second=121 amount=-1
kerning first=76 second=87 amount=-1
kerning first=65 second=89 amount=-1
kerning first=76 second=121 amount=-2
kerning first=89 second=111 amount=-2
kerning first=84 second=187 amount=-1
kerning first=208 second=171 amount=1
kerning first=76 second=45 amount=-1
kerning first=79 second=88 amount=-1
kerning first=171 second=230 amount=1
kerning first=75 second=117 amount=-1
kerning first=80 second=97 amount=-2
kerning first=86 second=197 amount=-1
kerning first=187 second=88 amount=-1
kerning first=84 second=115 amount=-2
kerning first=197 second=86 amount=-1
kerning first=80 second=89 amount=1
kerning first=108 second=116 amount=-2
kerning first=84 second=197 amount=-1
kerning first=76 second=84 amount=-2
kerning first=97 second=118 amount=-1
kerning first=197 second=44 amount=-1
kerning first=65 second=86 amount=-1
kerning first=118 second=97 amount=-1
kerning first=86 second=65 amount=-1
kerning first=70 second=121 amount=-2
kerning first=75 second=67 amount=-1
kerning first=171 second=84 amount=-1
kerning first=86 second=44 amount=-4
kerning first=82 second=197 amount=-1
kerning first=65 second=44 amount=-1
kerning first=171 second=97 amount=1
kerning first=116 second=97 amount=-1
kerning first=97 second=187 amount=1
kerning first=84 second=65 amount=-1
kerning first=216 second=88 amount=-1
kerning first=76 second=187 amount=1
kerning first=84 second=99 amount=-2
kerning first=70 second=58 amount=-4
kerning first=45 second=74 amount=1
kerning first=89 second=45 amount=-1
kerning first=84 second=44 amount=-3
kerning first=108 second=121 amount=-2
kerning first=121 second=111 amount=-1
kerning first=187 second=106 amount=1
kerning first=76 second=89 amount=-2
kerning first=68 second=45 amount=1
kerning first=80 second=197 amount=-2
kerning first=116 second=187 amount=1
kerning first=117 second=106 amount=-1
kerning first=82 second=65 amount=-1
kerning first=89 second=58 amount=-2
kerning first=70 second=105 amount=-2
kerning first=102 second=116 amount=-1
kerning first=75 second=216 amount=-1
kerning first=86 second=117 amount=-1
kerning first=112 second=97 amount=-1
kerning first=80 second=65 amount=-2
kerning first=87 second=58 amount=-2
kerning first=88 second=171 amount=-1
kerning first=89 second=105 amount=-1
kerning first=70 second=97 amount=-3
kerning first=80 second=44 amount=-5
kerning first=112 second=187 amount=1
kerning first=84 second=117 amount=-2
kerning first=88 second=67 amount=-1
kerning first=171 second=197 amount=1
kerning first=87 second=105 amount=-1
kerning first=86 second=171 amount=-1
kerning first=75 second=111 amount=-1
kerning first=89 second=97 amount=-2
kerning first=108 second=118 amount=-2
kerning first=76 second=86 amount=-2
kerning first=197 second=46 amount=-1
kerning first=171 second=86 amount=-1
kerning first=84 second=171 amount=-2
kerning first=45 second=84 amount=-1
kerning first=86 second=101 amount=-1
kerning first=87 second=97 amount=-1
kerning first=86 second=46 amount=-4
kerning first=197 second=59 amount=-1
kerning first=100 second=121 amount=-1
kerning first=171 second=65 amount=1
kerning first=187 second=116 amount=-1
kerning first=65 second=46 amount=-1
kerning first=108 second=187 amount=1
kerning first=116 second=99 amount=-1
kerning first=86 second=59 amount=-2
kerning first=187 second=74 amount=1
kerning first=84 second=101 amount=-2
kerning first=65 second=59 amount=-1
kerning first=84 second=46 amount=-3
kerning first=98 second=121 amount=-1
kerning first=88 second=216 amount=-1
kerning first=187 second=87 amount=-1
kerning first=70 second=197 amount=-2
kerning first=208 second=45 amount=1
kerning first=84 second=114 amount=-2
kerning first=45 second=89 amount=-1
kerning first=84 second=59 amount=-2
kerning first=89 second=197 amount=-1
kerning first=75 second=121 amount=-1
kerning first=102 second=97 amount=-2
kerning first=70 second=65 amount=-2
kerning first=80 second=46 amount=-5
kerning first=75 second=45 amount=-1
kerning first=70 second=44 amount=-4
kerning first=118 second=171 amount=-1
kerning first=121 second=97 amount=-1
kerning first=75 second=79 amount=-1
kerning first=84 second=119 amount=-2
kerning first=89 second=65 amount=-1
kerning first=102 second=187 amount=1
kerning first=86 second=111 amount=-1
kerning first=80 second=59 amount=-1
kerning first=89 second=44 amount=-3
kerning first=98 second=118 amount=-1
kerning first=116 second=171 amount=-1
kerning first=66 second=86 amount=-1
kerning first=187 second=84 amount=-2
kerning first=84 second=111 amount=-2
kerning first=187 second=118 amount=-1
kerning first=197 second=116 amount=-1
kerning first=87 second=44 amount=-3
kerning first=111 second=121 amount=-1
kerning first=102 second=115 amount=-1
kerning first=70 second=117 amount=-3
kerning first=65 second=116 amount=-1
kerning first=112 second=171 amount=1
kerning first=187 second=89 amount=-1
kerning first=89 second=117 amount=-1
kerning first=197 second=121 amount=-1
kerning first=70 second=171 amount=-1
kerning first=107 second=121 amount=-1
kerning first=171 second=106 amount=1
kerning first=75 second=89 amount=-1
kerning first=88 second=79 amount=-1
kerning first=87 second=117 amount=-1
kerning first=65 second=121 amount=-1
kerning first=89 second=171 amount=-1
kerning first=68 second=171 amount=1
kerning first=70 second=101 amount=-2
kerning first=197 second=58 amount=-1
