info face="Engravers' Gothic BT" size=80 bold=0 italic=0 charset="" unicode=0 stretchH=100 smooth=1 aa=1 padding=1,1,1,1 spacing=-2,-2
common lineHeight=86 base=67 scaleW=512 scaleH=512 pages=2 packed=0
page id=0 file="EngraversGothicBT_80_White1.png"
page id=1 file="EngraversGothicBT_80_White2.png"
chars count=230
char id=0       x=64   y=0    width=42   height=73   xoffset=3    yoffset=10   xadvance=48   page=0    chnl=0 
char id=13      x=0    y=0    width=0    height=0    xoffset=-1   yoffset=0    xadvance=0    page=0    chnl=0 
char id=33      x=500  y=147  width=8    height=46   xoffset=9    yoffset=23   xadvance=27   page=0    chnl=0 
char id=34      x=210  y=478  width=17   height=24   xoffset=3    yoffset=10   xadvance=22   page=0    chnl=0 
char id=35      x=261  y=211  width=54   height=59   xoffset=4    yoffset=9    xadvance=62   page=0    chnl=0 
char id=36      x=184  y=211  width=42   height=60   xoffset=6    yoffset=18   xadvance=53   page=0    chnl=0 
char id=38      x=385  y=381  width=46   height=46   xoffset=4    yoffset=23   xadvance=49   page=0    chnl=0 
char id=39      x=227  y=478  width=6    height=24   xoffset=3    yoffset=10   xadvance=12   page=0    chnl=0 
char id=40      x=492  y=432  width=15   height=45   xoffset=4    yoffset=24   xadvance=22   page=0    chnl=0 
char id=42      x=159  y=478  width=26   height=26   xoffset=7    yoffset=23   xadvance=40   page=0    chnl=0 
char id=43      x=288  y=381  width=50   height=50   xoffset=8    yoffset=18   xadvance=67   page=0    chnl=0 
char id=44      x=480  y=478  width=10   height=18   xoffset=8    yoffset=58   xadvance=27   page=0    chnl=0 
char id=47      x=315  y=272  width=29   height=54   xoffset=-3   yoffset=21   xadvance=22   page=0    chnl=0 
char id=58      x=0    y=478  width=8    height=31   xoffset=9    yoffset=38   xadvance=27   page=0    chnl=0 
char id=61      x=411  y=478  width=49   height=21   xoffset=9    yoffset=33   xadvance=67   page=0    chnl=0 
char id=63      x=431  y=381  width=27   height=46   xoffset=1    yoffset=23   xadvance=29   page=0    chnl=0 
char id=64      x=112  y=0    width=73   height=70   xoffset=4    yoffset=9    xadvance=80   page=0    chnl=0 
char id=67      x=458  y=381  width=44   height=46   xoffset=2    yoffset=23   xadvance=48   page=0    chnl=0 
char id=71      x=0    y=432  width=44   height=46   xoffset=2    yoffset=23   xadvance=49   page=0    chnl=0 
char id=73      x=502  y=381  width=7    height=45   xoffset=5    yoffset=23   xadvance=18   page=0    chnl=0 
char id=74      x=44   y=432  width=38   height=46   xoffset=1    yoffset=23   xadvance=43   page=0    chnl=0 
char id=79      x=82   y=432  width=47   height=46   xoffset=2    yoffset=23   xadvance=51   page=0    chnl=0 
char id=81      x=0    y=381  width=47   height=51   xoffset=2    yoffset=23   xadvance=51   page=0    chnl=0 
char id=83      x=129  y=432  width=44   height=46   xoffset=1    yoffset=23   xadvance=48   page=0    chnl=0 
char id=85      x=173  y=432  width=38   height=46   xoffset=4    yoffset=23   xadvance=46   page=0    chnl=0 
char id=92      x=344  y=272  width=29   height=54   xoffset=-3   yoffset=21   xadvance=22   page=0    chnl=0 
char id=94      x=233  y=478  width=49   height=24   xoffset=15   yoffset=9    xadvance=80   page=0    chnl=0 
char id=123     x=6    y=0    width=29   height=76   xoffset=5    yoffset=8    xadvance=40   page=0    chnl=0 
char id=124     x=0    y=0    width=6    height=82   xoffset=17   yoffset=5    xadvance=40   page=0    chnl=0 
char id=125     x=35   y=0    width=29   height=76   xoffset=6    yoffset=8    xadvance=40   page=0    chnl=0 
char id=160     x=0    y=0    width=0    height=0    xoffset=-1   yoffset=0    xadvance=53   page=0    chnl=0 
char id=162     x=305  y=147  width=36   height=61   xoffset=9    yoffset=17   xadvance=53   page=0    chnl=0 
char id=166     x=106  y=0    width=6    height=72   xoffset=17   yoffset=10   xadvance=40   page=0    chnl=0 
char id=167     x=337  y=327  width=28   height=52   xoffset=6    yoffset=23   xadvance=40   page=0    chnl=0 
char id=169     x=315  y=211  width=59   height=59   xoffset=4    yoffset=9    xadvance=67   page=0    chnl=0 
char id=170     x=335  y=478  width=27   height=22   xoffset=-1   yoffset=30   xadvance=24   page=0    chnl=0 
char id=171     x=8    y=478  width=31   height=29   xoffset=1    yoffset=36   xadvance=32   page=0    chnl=0 
char id=172     x=362  y=478  width=49   height=22   xoffset=9    yoffset=32   xadvance=67   page=0    chnl=0 
char id=173     x=0    y=0    width=0    height=0    xoffset=-1   yoffset=0    xadvance=27   page=0    chnl=0 
char id=174     x=374  y=211  width=59   height=59   xoffset=4    yoffset=9    xadvance=67   page=0    chnl=0 
char id=176     x=282  y=478  width=24   height=24   xoffset=1    yoffset=9    xadvance=26   page=0    chnl=0 
char id=177     x=211  y=432  width=50   height=46   xoffset=8    yoffset=20   xadvance=67   page=0    chnl=0 
char id=178     x=132  y=478  width=27   height=27   xoffset=5    yoffset=24   xadvance=35   page=0    chnl=0 
char id=179     x=100  y=478  width=32   height=28   xoffset=2    yoffset=24   xadvance=35   page=0    chnl=0 
char id=181     x=341  y=147  width=51   height=61   xoffset=-5   yoffset=24   xadvance=43   page=0    chnl=0 
char id=182     x=226  y=211  width=35   height=60   xoffset=2    yoffset=8    xadvance=40   page=0    chnl=0 
char id=184     x=460  y=478  width=20   height=20   xoffset=10   yoffset=66   xadvance=40   page=0    chnl=0 
char id=185     x=505  y=0    width=6    height=28   xoffset=15   yoffset=24   xadvance=35   page=0    chnl=0 
char id=186     x=306  y=478  width=29   height=23   xoffset=1    yoffset=29   xadvance=31   page=0    chnl=0 
char id=187     x=39   y=478  width=31   height=29   xoffset=1    yoffset=36   xadvance=32   page=0    chnl=0 
char id=188     x=261  y=432  width=64   height=46   xoffset=14   yoffset=23   xadvance=81   page=0    chnl=0 
char id=189     x=325  y=432  width=64   height=46   xoffset=14   yoffset=23   xadvance=81   page=0    chnl=0 
char id=190     x=389  y=432  width=76   height=46   xoffset=2    yoffset=24   xadvance=81   page=0    chnl=0 
char id=191     x=465  y=432  width=27   height=46   xoffset=1    yoffset=23   xadvance=29   page=0    chnl=0 
char id=192     x=132  y=82   width=49   height=64   xoffset=-1   yoffset=4    xadvance=47   page=0    chnl=0 
char id=193     x=181  y=82   width=49   height=64   xoffset=-1   yoffset=4    xadvance=47   page=0    chnl=0 
char id=194     x=230  y=82   width=49   height=64   xoffset=-1   yoffset=4    xadvance=47   page=0    chnl=0 
char id=195     x=392  y=147  width=49   height=61   xoffset=-1   yoffset=7    xadvance=47   page=0    chnl=0 
char id=196     x=441  y=147  width=49   height=61   xoffset=-1   yoffset=7    xadvance=47   page=0    chnl=0 
char id=197     x=185  y=0    width=49   height=68   xoffset=-1   yoffset=0    xadvance=47   page=0    chnl=0 
char id=199     x=85   y=147  width=44   height=63   xoffset=2    yoffset=23   xadvance=48   page=0    chnl=0 
char id=200     x=279  y=82   width=37   height=64   xoffset=5    yoffset=4    xadvance=44   page=0    chnl=0 
char id=201     x=316  y=82   width=37   height=64   xoffset=5    yoffset=4    xadvance=44   page=0    chnl=0 
char id=202     x=353  y=82   width=37   height=64   xoffset=5    yoffset=4    xadvance=44   page=0    chnl=0 
char id=203     x=0    y=211  width=37   height=61   xoffset=5    yoffset=7    xadvance=44   page=0    chnl=0 
char id=204     x=489  y=0    width=16   height=64   xoffset=-1   yoffset=4    xadvance=18   page=0    chnl=0 
char id=205     x=390  y=82   width=16   height=64   xoffset=3    yoffset=4    xadvance=18   page=0    chnl=0 
char id=206     x=406  y=82   width=27   height=64   xoffset=-3   yoffset=4    xadvance=18   page=0    chnl=0 
char id=207     x=486  y=82   width=23   height=61   xoffset=-2   yoffset=7    xadvance=18   page=0    chnl=0 
char id=209     x=37   y=211  width=38   height=61   xoffset=5    yoffset=7    xadvance=49   page=0    chnl=0 
char id=210     x=234  y=0    width=47   height=65   xoffset=2    yoffset=4    xadvance=51   page=0    chnl=0 
char id=211     x=281  y=0    width=47   height=65   xoffset=2    yoffset=4    xadvance=51   page=0    chnl=0 
char id=212     x=328  y=0    width=47   height=65   xoffset=2    yoffset=4    xadvance=51   page=0    chnl=0 
char id=213     x=173  y=147  width=47   height=62   xoffset=2    yoffset=7    xadvance=51   page=0    chnl=0 
char id=214     x=220  y=147  width=47   height=62   xoffset=2    yoffset=7    xadvance=51   page=0    chnl=0 
char id=216     x=338  y=381  width=47   height=48   xoffset=2    yoffset=22   xadvance=51   page=0    chnl=0 
char id=217     x=375  y=0    width=38   height=65   xoffset=4    yoffset=4    xadvance=46   page=0    chnl=0 
char id=218     x=413  y=0    width=38   height=65   xoffset=4    yoffset=4    xadvance=46   page=0    chnl=0 
char id=219     x=451  y=0    width=38   height=65   xoffset=4    yoffset=4    xadvance=46   page=0    chnl=0 
char id=220     x=267  y=147  width=38   height=62   xoffset=4    yoffset=7    xadvance=46   page=0    chnl=0 
char id=221     x=433  y=82   width=53   height=64   xoffset=-5   yoffset=4    xadvance=36   page=0    chnl=0 
char id=224     x=373  y=272  width=40   height=54   xoffset=-2   yoffset=14   xadvance=36   page=0    chnl=0 
char id=225     x=413  y=272  width=40   height=54   xoffset=-2   yoffset=14   xadvance=36   page=0    chnl=0 
char id=226     x=453  y=272  width=40   height=54   xoffset=-2   yoffset=14   xadvance=36   page=0    chnl=0 
char id=227     x=47   y=381  width=40   height=51   xoffset=-2   yoffset=17   xadvance=36   page=0    chnl=0 
char id=228     x=87   y=381  width=40   height=51   xoffset=-2   yoffset=17   xadvance=36   page=0    chnl=0 
char id=229     x=433  y=211  width=40   height=59   xoffset=-2   yoffset=9    xadvance=36   page=0    chnl=0 
char id=231     x=261  y=327  width=40   height=53   xoffset=2    yoffset=33   xadvance=44   page=0    chnl=0 
char id=232     x=0    y=327  width=35   height=54   xoffset=5    yoffset=14   xadvance=40   page=0    chnl=0 
char id=233     x=35   y=327  width=35   height=54   xoffset=5    yoffset=14   xadvance=40   page=0    chnl=0 
char id=234     x=70   y=327  width=35   height=54   xoffset=5    yoffset=14   xadvance=40   page=0    chnl=0 
char id=235     x=127  y=381  width=35   height=51   xoffset=5    yoffset=17   xadvance=40   page=0    chnl=0 
char id=236     x=493  y=272  width=16   height=54   xoffset=-2   yoffset=14   xadvance=17   page=0    chnl=0 
char id=237     x=105  y=327  width=16   height=54   xoffset=2    yoffset=14   xadvance=17   page=0    chnl=0 
char id=238     x=121  y=327  width=28   height=54   xoffset=-4   yoffset=14   xadvance=17   page=0    chnl=0 
char id=239     x=486  y=327  width=24   height=51   xoffset=-3   yoffset=17   xadvance=17   page=0    chnl=0 
char id=241     x=162  y=381  width=31   height=51   xoffset=5    yoffset=17   xadvance=41   page=0    chnl=0 
char id=242     x=0    y=272  width=43   height=55   xoffset=2    yoffset=14   xadvance=46   page=0    chnl=0 
char id=243     x=43   y=272  width=43   height=55   xoffset=2    yoffset=14   xadvance=46   page=0    chnl=0 
char id=244     x=86   y=272  width=43   height=55   xoffset=2    yoffset=14   xadvance=46   page=0    chnl=0 
char id=245     x=365  y=327  width=43   height=52   xoffset=2    yoffset=17   xadvance=46   page=0    chnl=0 
char id=246     x=408  y=327  width=43   height=52   xoffset=2    yoffset=17   xadvance=46   page=0    chnl=0 
char id=249     x=473  y=211  width=35   height=55   xoffset=5    yoffset=14   xadvance=45   page=0    chnl=0 
char id=250     x=129  y=272  width=35   height=55   xoffset=5    yoffset=14   xadvance=45   page=0    chnl=0 
char id=251     x=164  y=272  width=35   height=55   xoffset=5    yoffset=14   xadvance=45   page=0    chnl=0 
char id=252     x=451  y=327  width=35   height=52   xoffset=5    yoffset=17   xadvance=45   page=0    chnl=0 
char id=253     x=149  y=327  width=37   height=54   xoffset=-1   yoffset=14   xadvance=36   page=0    chnl=0 
char id=255     x=193  y=381  width=37   height=51   xoffset=-1   yoffset=17   xadvance=36   page=0    chnl=0 
char id=262     x=0    y=82   width=44   height=65   xoffset=2    yoffset=4    xadvance=48   page=0    chnl=0 
char id=263     x=199  y=272  width=40   height=55   xoffset=2    yoffset=14   xadvance=44   page=0    chnl=0 
char id=268     x=44   y=82   width=44   height=65   xoffset=2    yoffset=4    xadvance=48   page=0    chnl=0 
char id=269     x=239  y=272  width=40   height=55   xoffset=2    yoffset=14   xadvance=44   page=0    chnl=0 
char id=286     x=0    y=147  width=44   height=64   xoffset=2    yoffset=5    xadvance=49   page=0    chnl=0 
char id=287     x=186  y=327  width=41   height=54   xoffset=2    yoffset=15   xadvance=46   page=0    chnl=0 
char id=304     x=490  y=147  width=10   height=61   xoffset=4    yoffset=7    xadvance=18   page=0    chnl=0 
char id=350     x=129  y=147  width=44   height=63   xoffset=1    yoffset=23   xadvance=48   page=0    chnl=0 
char id=351     x=301  y=327  width=36   height=53   xoffset=1    yoffset=33   xadvance=40   page=0    chnl=0 
char id=352     x=88   y=82   width=44   height=65   xoffset=1    yoffset=4    xadvance=48   page=0    chnl=0 
char id=353     x=279  y=272  width=36   height=55   xoffset=1    yoffset=14   xadvance=40   page=0    chnl=0 
char id=376     x=75   y=211  width=53   height=61   xoffset=-5   yoffset=7    xadvance=36   page=0    chnl=0 
char id=381     x=44   y=147  width=41   height=64   xoffset=-1   yoffset=4    xadvance=41   page=0    chnl=0 
char id=382     x=227  y=327  width=34   height=54   xoffset=1    yoffset=14   xadvance=35   page=0    chnl=0 
char id=937     x=128  y=211  width=56   height=61   xoffset=3    yoffset=7    xadvance=62   page=0    chnl=0 
char id=8216    x=490  y=478  width=10   height=18   xoffset=9    yoffset=22   xadvance=27   page=0    chnl=0 
char id=8217    x=500  y=478  width=10   height=18   xoffset=8    yoffset=22   xadvance=27   page=0    chnl=0 
char id=8224    x=230  y=381  width=29   height=51   xoffset=6    yoffset=23   xadvance=40   page=0    chnl=0 
char id=8225    x=259  y=381  width=29   height=51   xoffset=6    yoffset=23   xadvance=40   page=0    chnl=0 
char id=8226    x=185  y=478  width=25   height=25   xoffset=11   yoffset=25   xadvance=47   page=0    chnl=0 
char id=8249    x=70   y=478  width=15   height=29   xoffset=1    yoffset=36   xadvance=16   page=0    chnl=0 
char id=8250    x=85   y=478  width=15   height=29   xoffset=1    yoffset=36   xadvance=16   page=0    chnl=0 
char id=37      x=76   y=0    width=65   height=45   xoffset=1    yoffset=24   xadvance=67   page=1    chnl=0 
char id=41      x=141  y=0    width=15   height=45   xoffset=3    yoffset=24   xadvance=22   page=1    chnl=0 
char id=45      x=177  y=295  width=19   height=7    xoffset=1    yoffset=43   xadvance=21   page=1    chnl=0 
char id=46      x=498  y=260  width=8    height=9    xoffset=9    yoffset=60   xadvance=27   page=1    chnl=0 
char id=48      x=156  y=0    width=49   height=45   xoffset=2    yoffset=24   xadvance=53   page=1    chnl=0 
char id=49      x=504  y=91   width=7    height=44   xoffset=23   yoffset=24   xadvance=53   page=1    chnl=0 
char id=50      x=219  y=136  width=39   height=44   xoffset=8    yoffset=24   xadvance=53   page=1    chnl=0 
char id=51      x=205  y=0    width=45   height=45   xoffset=3    yoffset=24   xadvance=53   page=1    chnl=0 
char id=52      x=258  y=136  width=47   height=44   xoffset=3    yoffset=24   xadvance=53   page=1    chnl=0 
char id=53      x=250  y=0    width=42   height=45   xoffset=5    yoffset=24   xadvance=53   page=1    chnl=0 
char id=54      x=292  y=0    width=47   height=45   xoffset=4    yoffset=24   xadvance=53   page=1    chnl=0 
char id=55      x=305  y=136  width=44   height=44   xoffset=7    yoffset=24   xadvance=53   page=1    chnl=0 
char id=56      x=339  y=0    width=43   height=45   xoffset=5    yoffset=24   xadvance=53   page=1    chnl=0 
char id=57      x=382  y=0    width=47   height=45   xoffset=3    yoffset=24   xadvance=53   page=1    chnl=0 
char id=59      x=480  y=136  width=10   height=38   xoffset=8    yoffset=38   xadvance=27   page=1    chnl=0 
char id=60      x=0    y=181  width=48   height=43   xoffset=9    yoffset=22   xadvance=67   page=1    chnl=0 
char id=62      x=48   y=181  width=48   height=43   xoffset=9    yoffset=22   xadvance=67   page=1    chnl=0 
char id=65      x=429  y=0    width=49   height=45   xoffset=-1   yoffset=23   xadvance=47   page=1    chnl=0 
char id=66      x=0    y=46   width=43   height=45   xoffset=5    yoffset=23   xadvance=52   page=1    chnl=0 
char id=68      x=43   y=46   width=43   height=45   xoffset=5    yoffset=23   xadvance=51   page=1    chnl=0 
char id=69      x=86   y=46   width=37   height=45   xoffset=5    yoffset=23   xadvance=44   page=1    chnl=0 
char id=70      x=123  y=46   width=36   height=45   xoffset=5    yoffset=23   xadvance=40   page=1    chnl=0 
char id=72      x=159  y=46   width=38   height=45   xoffset=5    yoffset=23   xadvance=49   page=1    chnl=0 
char id=75      x=197  y=46   width=41   height=45   xoffset=5    yoffset=23   xadvance=47   page=1    chnl=0 
char id=76      x=238  y=46   width=35   height=45   xoffset=5    yoffset=23   xadvance=40   page=1    chnl=0 
char id=77      x=273  y=46   width=47   height=45   xoffset=5    yoffset=23   xadvance=57   page=1    chnl=0 
char id=78      x=320  y=46   width=38   height=45   xoffset=5    yoffset=23   xadvance=49   page=1    chnl=0 
char id=80      x=358  y=46   width=40   height=45   xoffset=5    yoffset=23   xadvance=47   page=1    chnl=0 
char id=82      x=398  y=46   width=41   height=45   xoffset=5    yoffset=23   xadvance=48   page=1    chnl=0 
char id=84      x=439  y=46   width=51   height=45   xoffset=-5   yoffset=23   xadvance=33   page=1    chnl=0 
char id=86      x=0    y=91   width=47   height=45   xoffset=-1   yoffset=23   xadvance=44   page=1    chnl=0 
char id=87      x=47   y=91   width=61   height=45   xoffset=-1   yoffset=23   xadvance=58   page=1    chnl=0 
char id=88      x=108  y=91   width=44   height=45   xoffset=0    yoffset=23   xadvance=44   page=1    chnl=0 
char id=89      x=152  y=91   width=53   height=45   xoffset=-5   yoffset=23   xadvance=36   page=1    chnl=0 
char id=90      x=205  y=91   width=41   height=45   xoffset=-1   yoffset=23   xadvance=41   page=1    chnl=0 
char id=91      x=490  y=46   width=15   height=45   xoffset=4    yoffset=23   xadvance=22   page=1    chnl=0 
char id=93      x=478  y=0    width=15   height=45   xoffset=3    yoffset=23   xadvance=22   page=1    chnl=0 
char id=95      x=218  y=295  width=42   height=6    xoffset=-1   yoffset=81   xadvance=40   page=1    chnl=0 
char id=96      x=490  y=136  width=16   height=16   xoffset=10   yoffset=14   xadvance=40   page=1    chnl=0 
char id=97      x=453  y=181  width=40   height=35   xoffset=-2   yoffset=33   xadvance=36   page=1    chnl=0 
char id=98      x=146  y=224  width=35   height=35   xoffset=5    yoffset=33   xadvance=44   page=1    chnl=0 
char id=99      x=227  y=181  width=40   height=36   xoffset=2    yoffset=33   xadvance=44   page=1    chnl=0 
char id=100     x=181  y=224  width=35   height=35   xoffset=5    yoffset=33   xadvance=41   page=1    chnl=0 
char id=101     x=216  y=224  width=35   height=35   xoffset=5    yoffset=33   xadvance=40   page=1    chnl=0 
char id=102     x=251  y=224  width=33   height=35   xoffset=5    yoffset=33   xadvance=38   page=1    chnl=0 
char id=103     x=267  y=181  width=41   height=36   xoffset=2    yoffset=33   xadvance=46   page=1    chnl=0 
char id=104     x=284  y=224  width=36   height=35   xoffset=5    yoffset=33   xadvance=45   page=1    chnl=0 
char id=105     x=493  y=181  width=7    height=35   xoffset=5    yoffset=33   xadvance=17   page=1    chnl=0 
char id=106     x=308  y=181  width=31   height=36   xoffset=1    yoffset=33   xadvance=36   page=1    chnl=0 
char id=107     x=320  y=224  width=34   height=35   xoffset=5    yoffset=33   xadvance=38   page=1    chnl=0 
char id=108     x=354  y=224  width=32   height=35   xoffset=5    yoffset=33   xadvance=36   page=1    chnl=0 
char id=109     x=386  y=224  width=38   height=35   xoffset=5    yoffset=33   xadvance=47   page=1    chnl=0 
char id=110     x=424  y=224  width=31   height=35   xoffset=5    yoffset=33   xadvance=41   page=1    chnl=0 
char id=111     x=339  y=181  width=43   height=36   xoffset=2    yoffset=33   xadvance=46   page=1    chnl=0 
char id=112     x=455  y=224  width=37   height=35   xoffset=5    yoffset=33   xadvance=43   page=1    chnl=0 
char id=113     x=96   y=181  width=43   height=40   xoffset=2    yoffset=33   xadvance=46   page=1    chnl=0 
char id=114     x=0    y=260  width=37   height=35   xoffset=5    yoffset=33   xadvance=43   page=1    chnl=0 
char id=115     x=382  y=181  width=36   height=36   xoffset=1    yoffset=33   xadvance=40   page=1    chnl=0 
char id=116     x=37   y=260  width=35   height=35   xoffset=-1   yoffset=33   xadvance=32   page=1    chnl=0 
char id=117     x=418  y=181  width=35   height=36   xoffset=5    yoffset=33   xadvance=45   page=1    chnl=0 
char id=118     x=72   y=260  width=38   height=35   xoffset=0    yoffset=33   xadvance=38   page=1    chnl=0 
char id=119     x=110  y=260  width=50   height=35   xoffset=0    yoffset=33   xadvance=49   page=1    chnl=0 
char id=120     x=160  y=260  width=37   height=35   xoffset=0    yoffset=33   xadvance=36   page=1    chnl=0 
char id=121     x=197  y=260  width=37   height=35   xoffset=-1   yoffset=33   xadvance=36   page=1    chnl=0 
char id=122     x=234  y=260  width=34   height=35   xoffset=1    yoffset=33   xadvance=35   page=1    chnl=0 
char id=126     x=39   y=295  width=55   height=14   xoffset=6    yoffset=36   xadvance=67   page=1    chnl=0 
char id=161     x=493  y=0    width=8    height=45   xoffset=9    yoffset=23   xadvance=27   page=1    chnl=0 
char id=163     x=349  y=136  width=42   height=44   xoffset=6    yoffset=24   xadvance=53   page=1    chnl=0 
char id=164     x=391  y=136  width=44   height=44   xoffset=2    yoffset=10   xadvance=48   page=1    chnl=0 
char id=165     x=435  y=136  width=45   height=44   xoffset=3    yoffset=24   xadvance=50   page=1    chnl=0 
char id=168     x=94   y=295  width=22   height=9    xoffset=9    yoffset=17   xadvance=40   page=1    chnl=0 
char id=175     x=196  y=295  width=22   height=7    xoffset=9    yoffset=18   xadvance=40   page=1    chnl=0 
char id=180     x=23   y=295  width=16   height=16   xoffset=14   yoffset=14   xadvance=40   page=1    chnl=0 
char id=183     x=500  y=181  width=9    height=9    xoffset=9    yoffset=42   xadvance=27   page=1    chnl=0 
char id=198     x=246  y=91   width=74   height=45   xoffset=-3   yoffset=23   xadvance=69   page=1    chnl=0 
char id=208     x=320  y=91   width=52   height=45   xoffset=-1   yoffset=23   xadvance=54   page=1    chnl=0 
char id=215     x=372  y=91   width=45   height=45   xoffset=11   yoffset=21   xadvance=67   page=1    chnl=0 
char id=222     x=417  y=91   width=40   height=45   xoffset=5    yoffset=23   xadvance=47   page=1    chnl=0 
char id=223     x=0    y=224  width=76   height=36   xoffset=1    yoffset=33   xadvance=79   page=1    chnl=0 
char id=230     x=268  y=260  width=66   height=35   xoffset=-2   yoffset=33   xadvance=65   page=1    chnl=0 
char id=240     x=334  y=260  width=42   height=35   xoffset=-1   yoffset=33   xadvance=43   page=1    chnl=0 
char id=247     x=139  y=181  width=48   height=38   xoffset=9    yoffset=24   xadvance=67   page=1    chnl=0 
char id=248     x=187  y=181  width=40   height=38   xoffset=1    yoffset=32   xadvance=43   page=1    chnl=0 
char id=254     x=376  y=260  width=37   height=35   xoffset=5    yoffset=33   xadvance=43   page=1    chnl=0 
char id=273     x=334  y=260  width=42   height=35   xoffset=-1   yoffset=33   xadvance=43   page=1    chnl=0 
char id=305     x=492  y=224  width=7    height=35   xoffset=5    yoffset=33   xadvance=17   page=1    chnl=0 
char id=321     x=457  y=91   width=47   height=45   xoffset=-1   yoffset=23   xadvance=46   page=1    chnl=0 
char id=322     x=413  y=260  width=39   height=35   xoffset=-1   yoffset=33   xadvance=37   page=1    chnl=0 
char id=338     x=0    y=0    width=76   height=46   xoffset=2    yoffset=23   xadvance=79   page=1    chnl=0 
char id=339     x=76   y=224  width=70   height=36   xoffset=2    yoffset=33   xadvance=73   page=1    chnl=0 
char id=960     x=0    y=136  width=47   height=45   xoffset=-1   yoffset=24   xadvance=46   page=1    chnl=0 
char id=8211    x=260  y=295  width=42   height=5    xoffset=-1   yoffset=43   xadvance=40   page=1    chnl=0 
char id=8212    x=302  y=295  width=82   height=5    xoffset=-1   yoffset=43   xadvance=80   page=1    chnl=0 
char id=8218    x=499  y=224  width=10   height=18   xoffset=8    yoffset=58   xadvance=27   page=1    chnl=0 
char id=8220    x=452  y=260  width=23   height=18   xoffset=9    yoffset=22   xadvance=40   page=1    chnl=0 
char id=8221    x=475  y=260  width=23   height=18   xoffset=8    yoffset=22   xadvance=40   page=1    chnl=0 
char id=8222    x=0    y=295  width=23   height=18   xoffset=8    yoffset=58   xadvance=40   page=1    chnl=0 
char id=8230    x=116  y=295  width=61   height=9    xoffset=9    yoffset=60   xadvance=80   page=1    chnl=0 
char id=8240    x=47   y=136  width=95   height=45   xoffset=1    yoffset=24   xadvance=96   page=1    chnl=0 
char id=8355    x=142  y=136  width=77   height=45   xoffset=5    yoffset=23   xadvance=83   page=1    chnl=0 
kernings count=582
kerning first=70 second=46 amount=-13
kerning first=79 second=86 amount=-1
kerning first=80 second=8222 amount=-18
kerning first=86 second=79 amount=-1
kerning first=87 second=8249 amount=-3
kerning first=322 second=187 amount=3
kerning first=121 second=99 amount=-2
kerning first=84 second=121 amount=-7
kerning first=89 second=8216 amount=-1
kerning first=108 second=171 amount=-1
kerning first=89 second=67 amount=-1
kerning first=240 second=8222 amount=-3
kerning first=208 second=86 amount=-1
kerning first=65 second=79 amount=-1
kerning first=66 second=8249 amount=1
kerning first=8218 second=108 amount=-1
kerning first=120 second=8222 amount=-1
kerning first=8222 second=104 amount=-1
kerning first=79 second=65 amount=-1
kerning first=86 second=58 amount=-7
kerning first=87 second=171 amount=-3
kerning first=70 second=114 amount=-7
kerning first=89 second=101 amount=-4
kerning first=197 second=71 amount=-1
kerning first=70 second=59 amount=-11
kerning first=89 second=46 amount=-9
kerning first=99 second=8222 amount=-1
kerning first=208 second=65 amount=-1
kerning first=65 second=58 amount=-3
kerning first=66 second=171 amount=1
kerning first=84 second=45 amount=-4
kerning first=115 second=115 amount=-1
kerning first=8218 second=87 amount=-7
kerning first=103 second=121 amount=-3
kerning first=82 second=87 amount=1
kerning first=8250 second=86 amount=-4
kerning first=8218 second=121 amount=-10
kerning first=75 second=197 amount=-3
kerning first=8250 second=120 amount=-1
kerning first=87 second=8216 amount=-1
kerning first=187 second=86 amount=-4
kerning first=8222 second=339 amount=-1
kerning first=197 second=84 amount=-4
kerning first=89 second=59 amount=-7
kerning first=118 second=8222 amount=-12
kerning first=322 second=8218 amount=-3
kerning first=86 second=105 amount=-3
kerning first=65 second=71 amount=-1
kerning first=66 second=8216 amount=-3
kerning first=84 second=58 amount=-7
kerning first=87 second=101 amount=-2
kerning first=113 second=8218 amount=-3
kerning first=197 second=118 amount=-3
kerning first=216 second=8218 amount=-3
kerning first=187 second=120 amount=-1
kerning first=8218 second=100 amount=-1
kerning first=321 second=216 amount=-1
kerning first=87 second=46 amount=-10
kerning first=97 second=8222 amount=-4
kerning first=112 second=119 amount=3
kerning first=80 second=87 amount=1
kerning first=88 second=8250 amount=1
kerning first=97 second=116 amount=-3
kerning first=90 second=8217 amount=-1
kerning first=80 second=121 amount=1
kerning first=65 second=84 amount=-4
kerning first=87 second=114 amount=-2
kerning first=8249 second=116 amount=4
kerning first=8218 second=113 amount=-1
kerning first=197 second=8250 amount=3
kerning first=75 second=8220 amount=-3
kerning first=87 second=59 amount=-7
kerning first=88 second=187 amount=1
kerning first=75 second=65 amount=-3
kerning first=65 second=118 amount=-3
kerning first=76 second=338 amount=-1
kerning first=84 second=105 amount=-6
kerning first=116 second=8222 amount=-12
kerning first=230 second=8250 amount=3
kerning first=171 second=116 amount=4
kerning first=240 second=121 amount=-3
kerning first=86 second=97 amount=-5
kerning first=216 second=197 amount=-1
kerning first=107 second=8250 amount=1
kerning first=116 second=116 amount=-3
kerning first=121 second=339 amount=-3
kerning first=80 second=45 amount=1
kerning first=197 second=187 amount=3
kerning first=99 second=121 amount=-2
kerning first=230 second=187 amount=3
kerning first=86 second=8250 amount=-3
kerning first=8222 second=122 amount=-3
kerning first=74 second=8222 amount=-4
kerning first=88 second=8217 amount=-1
kerning first=107 second=187 amount=1
kerning first=71 second=197 amount=-1
kerning first=197 second=89 amount=-2
kerning first=8249 second=74 amount=3
kerning first=65 second=8250 amount=3
kerning first=86 second=187 amount=-3
kerning first=114 second=8222 amount=-3
kerning first=171 second=74 amount=3
kerning first=121 second=8249 amount=-1
kerning first=80 second=58 amount=-4
kerning first=70 second=111 amount=-7
kerning first=197 second=8217 amount=-9
kerning first=216 second=86 amount=-1
kerning first=84 second=97 amount=-7
kerning first=65 second=187 amount=3
kerning first=100 second=8249 amount=1
kerning first=108 second=119 amount=-4
kerning first=8218 second=84 amount=-10
kerning first=97 second=121 amount=-4
kerning first=121 second=171 amount=-1
kerning first=76 second=87 amount=-4
kerning first=216 second=65 amount=-1
kerning first=84 second=8250 amount=-3
kerning first=8218 second=198 amount=1
kerning first=65 second=89 amount=-2
kerning first=8218 second=118 amount=-10
kerning first=67 second=8218 amount=-1
kerning first=8222 second=114 amount=-1
kerning first=76 second=121 amount=-7
kerning first=89 second=111 amount=-7
kerning first=100 second=171 amount=1
kerning first=197 second=81 amount=-1
kerning first=76 second=8221 amount=-13
kerning first=208 second=8249 amount=3
kerning first=71 second=8220 amount=-1
kerning first=65 second=8217 amount=-9
kerning first=84 second=187 amount=-3
kerning first=71 second=65 amount=-1
kerning first=80 second=105 amount=-1
kerning first=112 second=8222 amount=-15
kerning first=8218 second=97 amount=-1
kerning first=198 second=8222 amount=-3
kerning first=82 second=97 amount=-1
kerning first=8249 second=230 amount=3
kerning first=111 second=120 amount=-1
kerning first=321 second=338 amount=-1
kerning first=208 second=171 amount=3
kerning first=76 second=45 amount=-3
kerning first=86 second=8218 amount=-10
kerning first=79 second=88 amount=-4
kerning first=108 second=111 amount=-1
kerning first=171 second=230 amount=3
kerning first=70 second=8222 amount=-12
kerning first=76 second=79 amount=-1
kerning first=90 second=8220 amount=-3
kerning first=65 second=81 amount=-1
kerning first=75 second=117 amount=-3
kerning first=75 second=339 amount=-2
kerning first=240 second=118 amount=-1
kerning first=80 second=97 amount=-7
kerning first=114 second=121 amount=-1
kerning first=8218 second=89 amount=-9
kerning first=89 second=8222 amount=-12
kerning first=8250 second=88 amount=-3
kerning first=84 second=8218 amount=-10
kerning first=86 second=197 amount=-4
kerning first=8222 second=240 amount=-1
kerning first=8222 second=119 amount=-9
kerning first=80 second=8250 amount=1
kerning first=120 second=97 amount=-1
kerning first=187 second=88 amount=-3
kerning first=75 second=8249 amount=-1
kerning first=88 second=8220 amount=-4
kerning first=197 second=86 amount=-4
kerning first=84 second=115 amount=-7
kerning first=321 second=87 amount=-4
kerning first=99 second=97 amount=1
kerning first=80 second=110 amount=-1
kerning first=8218 second=102 amount=-1
kerning first=120 second=8250 amount=1
kerning first=8222 second=98 amount=-1
kerning first=80 second=187 amount=1
kerning first=108 second=8222 amount=-3
kerning first=197 second=8220 amount=-10
kerning first=75 second=171 amount=-1
kerning first=103 second=8218 amount=-3
kerning first=321 second=121 amount=-7
kerning first=321 second=8221 amount=-13
kerning first=322 second=339 amount=-1
kerning first=87 second=8222 amount=-9
kerning first=80 second=89 amount=3
kerning first=108 second=116 amount=-6
kerning first=198 second=8221 amount=-3
kerning first=120 second=187 amount=1
kerning first=8249 second=84 amount=-3
kerning first=84 second=197 amount=-4
kerning first=97 second=118 amount=-3
kerning first=76 second=84 amount=-6
kerning first=197 second=44 amount=-2
kerning first=118 second=97 amount=-3
kerning first=65 second=86 amount=-4
kerning first=66 second=8222 amount=-1
kerning first=321 second=45 amount=-3
kerning first=86 second=8220 amount=-3
kerning first=107 second=99 amount=-1
kerning first=171 second=84 amount=-3
kerning first=86 second=65 amount=-4
kerning first=8216 second=74 amount=-15
kerning first=70 second=121 amount=-7
kerning first=75 second=8216 amount=-3
kerning first=122 second=8218 amount=-1
kerning first=8250 second=114 amount=-1
kerning first=75 second=67 amount=-3
kerning first=70 second=8221 amount=4
kerning first=8222 second=111 amount=-1
kerning first=321 second=79 amount=-1
kerning first=322 second=8249 amount=-1
kerning first=65 second=8220 amount=-10
kerning first=187 second=114 amount=-1
kerning first=65 second=65 amount=-1
kerning first=8249 second=97 amount=3
kerning first=75 second=101 amount=-1
kerning first=86 second=44 amount=-12
kerning first=97 second=8250 amount=3
kerning first=171 second=97 amount=3
kerning first=80 second=8218 amount=-18
kerning first=322 second=171 amount=-1
kerning first=82 second=197 amount=-3
kerning first=65 second=44 amount=-2
kerning first=68 second=87 amount=1
kerning first=76 second=8250 amount=4
kerning first=116 second=97 amount=-3
kerning first=84 second=8220 amount=3
kerning first=97 second=187 amount=3
kerning first=8220 second=74 amount=-15
kerning first=80 second=115 amount=-1
kerning first=84 second=65 amount=-4
kerning first=8218 second=107 amount=-1
kerning first=120 second=8218 amount=-1
kerning first=240 second=8218 amount=-3
kerning first=8222 second=103 amount=-1
kerning first=8250 second=106 amount=3
kerning first=216 second=88 amount=-4
kerning first=116 second=8250 amount=4
kerning first=76 second=187 amount=4
kerning first=84 second=99 amount=-7
kerning first=70 second=58 amount=-11
kerning first=89 second=45 amount=-3
kerning first=45 second=74 amount=3
kerning first=99 second=8218 amount=-1
kerning first=114 second=118 amount=-1
kerning first=84 second=44 amount=-9
kerning first=108 second=121 amount=-7
kerning first=121 second=111 amount=-3
kerning first=187 second=106 amount=3
kerning first=8218 second=86 amount=-9
kerning first=76 second=89 amount=-6
kerning first=117 second=106 amount=-3
kerning first=68 second=45 amount=3
kerning first=98 second=119 amount=-1
kerning first=116 second=187 amount=4
kerning first=80 second=197 amount=-7
kerning first=8218 second=120 amount=-1
kerning first=85 second=74 amount=-1
kerning first=8222 second=116 amount=-10
kerning first=114 second=97 amount=-1
kerning first=76 second=8217 amount=-13
kerning first=82 second=65 amount=-3
kerning first=321 second=84 amount=-6
kerning first=71 second=8216 amount=-1
kerning first=89 second=58 amount=-7
kerning first=118 second=8218 amount=-12
kerning first=66 second=8221 amount=-3
kerning first=8218 second=99 amount=-1
kerning first=197 second=117 amount=-1
kerning first=8250 second=98 amount=-1
kerning first=102 second=8222 amount=-13
kerning first=70 second=105 amount=-6
kerning first=97 second=8218 amount=-4
kerning first=187 second=98 amount=-1
kerning first=102 second=116 amount=-2
kerning first=88 second=8249 amount=-3
kerning first=107 second=339 amount=-1
kerning first=90 second=8216 amount=-3
kerning first=75 second=216 amount=-3
kerning first=8218 second=322 amount=-1
kerning first=86 second=117 amount=-2
kerning first=112 second=97 amount=-4
kerning first=8218 second=112 amount=-1
kerning first=86 second=339 amount=-4
kerning first=8222 second=108 amount=-1
kerning first=121 second=8222 amount=-12
kerning first=80 second=65 amount=-7
kerning first=89 second=105 amount=-4
kerning first=87 second=58 amount=-7
kerning first=88 second=171 amount=-3
kerning first=116 second=8218 amount=-12
kerning first=65 second=117 amount=-1
kerning first=230 second=8249 amount=-1
kerning first=321 second=8250 amount=4
kerning first=112 second=8250 amount=3
kerning first=100 second=8222 amount=-3
kerning first=107 second=8249 amount=-1
kerning first=8222 second=87 amount=-7
kerning first=80 second=44 amount=-16
kerning first=70 second=97 amount=-9
kerning first=230 second=171 amount=-1
kerning first=79 second=8222 amount=-3
kerning first=8249 second=197 amount=3
kerning first=86 second=8249 amount=-4
kerning first=8222 second=121 amount=-10
kerning first=112 second=187 amount=3
kerning first=74 second=8218 amount=-4
kerning first=120 second=99 amount=-1
kerning first=321 second=187 amount=4
kerning first=88 second=8216 amount=-4
kerning first=107 second=171 amount=-1
kerning first=8216 second=198 amount=-9
kerning first=84 second=117 amount=-6
kerning first=70 second=8250 amount=-1
kerning first=88 second=67 amount=-4
kerning first=171 second=197 amount=3
kerning first=84 second=339 amount=-7
kerning first=321 second=89 amount=-6
kerning first=119 second=8222 amount=-7
kerning first=87 second=105 amount=-2
kerning first=8218 second=104 amount=-1
kerning first=86 second=171 amount=-4
kerning first=75 second=111 amount=-2
kerning first=88 second=101 amount=-1
kerning first=114 second=8218 amount=-3
kerning first=8222 second=100 amount=-1
kerning first=89 second=97 amount=-7
kerning first=197 second=8216 amount=-10
kerning first=322 second=119 amount=-4
kerning first=321 second=8217 amount=-13
kerning first=70 second=187 amount=-1
kerning first=98 second=8222 amount=-4
kerning first=108 second=118 amount=-6
kerning first=198 second=8217 amount=-3
kerning first=8249 second=86 amount=-3
kerning first=97 second=120 amount=-1
kerning first=76 second=86 amount=-7
kerning first=84 second=8249 amount=-6
kerning first=197 second=46 amount=-2
kerning first=74 second=197 amount=-1
kerning first=8249 second=120 amount=1
kerning first=86 second=8216 amount=-3
kerning first=171 second=86 amount=-3
kerning first=8220 second=198 amount=-9
kerning first=8250 second=116 amount=-3
kerning first=68 second=8250 amount=1
kerning first=8218 second=339 amount=-1
kerning first=8222 second=113 amount=-1
kerning first=8249 second=65 amount=3
kerning first=76 second=8220 amount=-13
kerning first=70 second=8217 amount=4
kerning first=171 second=120 amount=1
kerning first=84 second=171 amount=-6
kerning first=45 second=84 amount=-4
kerning first=65 second=8216 amount=-10
kerning first=86 second=101 amount=-3
kerning first=112 second=8218 amount=-15
kerning first=187 second=116 amount=-3
kerning first=87 second=97 amount=-3
kerning first=198 second=8218 amount=-3
kerning first=171 second=65 amount=3
kerning first=108 second=8250 amount=3
kerning first=86 second=46 amount=-12
kerning first=68 second=187 amount=1
kerning first=197 second=59 amount=-3
kerning first=322 second=111 amount=-1
kerning first=100 second=121 amount=-3
kerning first=65 second=46 amount=-2
kerning first=68 second=89 amount=-1
kerning first=70 second=8218 amount=-12
kerning first=108 second=187 amount=3
kerning first=116 second=99 amount=-2
kerning first=8250 second=74 amount=3
kerning first=84 second=8216 amount=3
kerning first=208 second=87 amount=1
kerning first=80 second=117 amount=-1
kerning first=106 second=97 amount=-1
kerning first=80 second=339 amount=-1
kerning first=74 second=8220 amount=-1
kerning first=86 second=59 amount=-7
kerning first=187 second=74 amount=3
kerning first=74 second=65 amount=-1
kerning first=75 second=338 amount=-3
kerning first=84 second=101 amount=-6
kerning first=65 second=59 amount=-3
kerning first=84 second=46 amount=-9
kerning first=120 second=339 amount=-1
kerning first=8222 second=84 amount=-10
kerning first=89 second=8218 amount=-12
kerning first=8250 second=87 amount=-3
kerning first=98 second=121 amount=-4
kerning first=88 second=216 amount=-4
kerning first=8222 second=198 amount=1
kerning first=8218 second=122 amount=-3
kerning first=66 second=89 amount=-1
kerning first=8222 second=118 amount=-10
kerning first=8250 second=121 amount=-1
kerning first=208 second=45 amount=3
kerning first=187 second=87 amount=-3
kerning first=70 second=197 amount=-7
kerning first=197 second=85 amount=-1
kerning first=84 second=114 amount=-6
kerning first=197 second=216 amount=-1
kerning first=321 second=86 amount=-7
kerning first=45 second=89 amount=-3
kerning first=322 second=8222 amount=-3
kerning first=187 second=121 amount=-1
kerning first=66 second=8217 amount=-3
kerning first=84 second=59 amount=-7
kerning first=113 second=8222 amount=-3
kerning first=120 second=8249 amount=-1
kerning first=197 second=119 amount=-1
kerning first=108 second=8218 amount=-3
kerning first=216 second=8222 amount=-3
kerning first=8222 second=97 amount=-1
kerning first=240 second=8249 amount=1
kerning first=8250 second=230 amount=-1
kerning first=322 second=116 amount=-6
kerning first=321 second=8220 amount=-13
kerning first=107 second=119 amount=-1
kerning first=240 second=171 amount=1
kerning first=87 second=8218 amount=-9
kerning first=89 second=197 amount=-2
kerning first=198 second=8220 amount=-3
kerning first=86 second=216 amount=-1
kerning first=75 second=87 amount=-1
kerning first=120 second=171 amount=-1
kerning first=97 second=117 amount=-1
kerning first=187 second=230 amount=-1
kerning first=8216 second=197 amount=-8
kerning first=65 second=85 amount=-1
kerning first=66 second=8218 amount=-1
kerning first=68 second=197 amount=-1
kerning first=8218 second=114 amount=-1
kerning first=75 second=121 amount=-4
kerning first=65 second=216 amount=-1
kerning first=76 second=117 amount=-1
kerning first=75 second=8221 amount=-1
kerning first=102 second=97 amount=-7
kerning first=65 second=119 amount=-1
kerning first=70 second=8220 amount=3
kerning first=70 second=65 amount=-7
kerning first=118 second=8249 amount=-3
kerning first=80 second=101 amount=-1
kerning first=8222 second=89 amount=-9
kerning first=102 second=8250 amount=3
kerning first=80 second=46 amount=-16
kerning first=97 second=8249 amount=-1
kerning first=75 second=45 amount=-3
kerning first=100 second=118 amount=-1
kerning first=70 second=44 amount=-13
kerning first=118 second=171 amount=-3
kerning first=107 second=111 amount=-1
kerning first=121 second=97 amount=-4
kerning first=68 second=86 amount=-1
kerning first=8220 second=197 amount=-8
kerning first=75 second=79 amount=-3
kerning first=84 second=119 amount=-6
kerning first=89 second=8220 amount=-1
kerning first=102 second=187 amount=3
kerning first=89 second=65 amount=-2
kerning first=97 second=171 amount=-1
kerning first=86 second=111 amount=-4
kerning first=80 second=114 amount=-1
kerning first=8216 second=65 amount=-8
kerning first=8222 second=102 amount=-1
kerning first=80 second=59 amount=-4
kerning first=68 second=65 amount=-1
kerning first=116 second=8249 amount=-3
kerning first=322 second=121 amount=-7
kerning first=89 second=44 amount=-9
kerning first=8249 second=88 amount=1
kerning first=8250 second=84 amount=-6
kerning first=85 second=197 amount=-1
kerning first=98 second=118 amount=-3
kerning first=116 second=171 amount=-3
kerning first=8218 second=240 amount=-1
kerning first=71 second=87 amount=1
kerning first=8218 second=119 amount=-9
kerning first=119 second=97 amount=-1
kerning first=66 second=86 amount=-3
kerning first=67 second=8222 amount=-1
kerning first=171 second=88 amount=1
kerning first=8250 second=118 amount=-3
kerning first=87 second=8220 amount=-1
kerning first=187 second=84 amount=-6
kerning first=88 second=338 amount=-4
kerning first=76 second=8216 amount=-13
kerning first=84 second=111 amount=-7
kerning first=208 second=8250 amount=1
kerning first=8220 second=65 amount=-8
kerning first=187 second=118 amount=-3
kerning first=119 second=8250 amount=1
kerning first=66 second=8220 amount=-3
kerning first=8218 second=98 amount=-1
kerning first=197 second=116 amount=-3
kerning first=8250 second=97 amount=-1
kerning first=102 second=8218 amount=-13
kerning first=197 second=338 amount=-1
kerning first=321 second=117 amount=-1
kerning first=87 second=44 amount=-10
kerning first=111 second=121 amount=-3
kerning first=208 second=187 amount=1
kerning first=86 second=8222 amount=-10
kerning first=107 second=116 amount=-1
kerning first=187 second=97 amount=-1
kerning first=119 second=187 amount=1
kerning first=83 second=197 amount=-1
kerning first=102 second=115 amount=-2
kerning first=90 second=8221 amount=-1
kerning first=117 second=97 amount=-1
kerning first=208 second=89 amount=-1
kerning first=8218 second=111 amount=-1
kerning first=85 second=65 amount=-1
kerning first=86 second=338 amount=-1
kerning first=8222 second=107 amount=-1
kerning first=74 second=8216 amount=-1
kerning first=121 second=8218 amount=-12
kerning first=70 second=117 amount=-8
kerning first=65 second=116 amount=-3
kerning first=70 second=339 amount=-7
kerning first=65 second=338 amount=-1
kerning first=112 second=8249 amount=3
kerning first=100 second=8218 amount=-3
kerning first=75 second=97 amount=-1
kerning first=8250 second=89 amount=-4
kerning first=8222 second=86 amount=-9
kerning first=84 second=8222 amount=-10
kerning first=79 second=8218 amount=-3
kerning first=8222 second=120 amount=-1
kerning first=112 second=171 amount=3
kerning first=187 second=89 amount=-4
kerning first=89 second=117 amount=-4
kerning first=88 second=8221 amount=-1
kerning first=70 second=8249 amount=-3
kerning first=89 second=339 amount=-7
kerning first=83 second=65 amount=-1
kerning first=80 second=111 amount=-1
kerning first=119 second=8218 amount=-7
kerning first=8218 second=103 amount=-1
kerning first=8249 second=106 amount=3
kerning first=197 second=121 amount=-3
kerning first=8222 second=99 amount=-1
kerning first=197 second=8221 amount=-9
kerning first=103 second=8222 amount=-3
kerning first=322 second=118 amount=-6
kerning first=321 second=8216 amount=-13
kerning first=70 second=171 amount=-3
kerning first=98 second=8218 amount=-4
kerning first=171 second=106 amount=3
kerning first=107 second=121 amount=-3
kerning first=120 second=111 amount=-1
kerning first=198 second=8216 amount=-3
kerning first=75 second=89 amount=-3
kerning first=88 second=79 amount=-4
kerning first=89 second=8249 amount=-4
kerning first=97 second=119 amount=-1
kerning first=103 second=116 amount=-1
kerning first=79 second=197 amount=-1
kerning first=98 second=115 amount=-1
kerning first=108 second=339 amount=-1
kerning first=76 second=216 amount=-1
kerning first=8218 second=116 amount=-10
kerning first=87 second=117 amount=-2
kerning first=8249 second=119 amount=1
kerning first=8222 second=112 amount=-1
kerning first=8222 second=322 amount=-1
kerning first=68 second=8249 amount=3
kerning first=75 second=8217 amount=-1
kerning first=122 second=8222 amount=-1
kerning first=208 second=197 amount=-1
kerning first=197 second=79 amount=-1
kerning first=70 second=8216 amount=3
kerning first=65 second=121 amount=-3
kerning first=89 second=171 amount=-4
kerning first=171 second=119 amount=1
kerning first=322 second=8250 amount=3
kerning first=65 second=8221 amount=-9
kerning first=108 second=8249 amount=-1
kerning first=68 second=171 amount=3
kerning first=70 second=101 amount=-7
kerning first=197 second=58 amount=-3
